<svg xmlns="http://www.w3.org/2000/svg"  version="1.1" id="Layer_1" x="0px" y="0px" viewBox="0 0 495 495" style="enable-background:new 0 0 495 495;" xml:space="preserve">
<g>
	<path d="M410.492,242.611l-19.321-6.103V61.371C430.258,68.465,460,102.727,460,143.829h30c0-57.681-43.127-105.474-98.829-112.84   V0h-30v30.99c-55.702,7.365-98.83,55.158-98.83,112.84c0,54.59,27.494,92.129,79.509,108.56l19.321,6.103v175.137   c-39.087-7.094-68.83-41.357-68.83-82.458h-30c0,57.681,43.128,105.474,98.83,112.84V495h30v-30.99   C446.873,456.645,490,408.852,490,351.171C490,296.581,462.506,259.042,410.492,242.611z M350.886,223.783   c-39.942-12.617-58.545-38.023-58.545-79.954c0-41.102,29.742-75.365,68.83-82.458v165.661L350.886,223.783z M391.171,433.629   v-165.66l10.285,3.249C441.397,283.835,460,309.24,460,351.171C460,392.273,430.258,426.535,391.171,433.629z"/>
	<path d="M118.932,60c46.281,0,83.933,37.652,83.933,83.932h30C232.865,81.11,181.755,30,118.932,30C56.11,30,5,81.11,5,143.932   v207.136C5,413.89,56.11,465,118.932,465c62.823,0,113.933-51.11,113.933-113.932h-30c0,46.28-37.652,83.932-83.933,83.932   C72.652,435,35,397.348,35,351.068V143.932C35,97.652,72.652,60,118.932,60z"/>
</g>
</svg>
