<svg xmlns:xlink="http://www.w3.org/1999/xlink" width="15" height="18" viewBox="0 0 15 18" version="1.1"
     xmlns="http://www.w3.org/2000/svg">
  <title>&#239;&#133;&#187;</title>
  <desc>Created using Figma</desc>
  <g id="Canvas" transform="translate(5077 -681)">
    <g id="&#239;&#133;&#187;">
      <use xlink:href="#path0_fill" transform="translate(-5077 681)" fill="#8898A0"/>
    </g>
  </g>
  <defs>
    <path id="path0_fill"
          d="M 4.95201 4.42299C 4.74107 4.42299 4.57031 4.24219 4.57031 4.03125C 4.57031 3.82031 4.74107 3.63951 4.95201 3.63951C 5.17299 3.63951 5.34375 3.82031 5.34375 4.03125C 5.34375 4.24219 5.17299 4.42299 4.95201 4.42299ZM 9.19085 4.42299C 8.96987 4.42299 8.79911 4.24219 8.79911 4.03125C 8.79911 3.82031 8.96987 3.63951 9.19085 3.63951C 9.40179 3.63951 9.57254 3.82031 9.57254 4.03125C 9.57254 4.24219 9.40179 4.42299 9.19085 4.42299ZM 1.0346 6.27121C 0.462054 6.27121 0 6.73326 0 7.29576L 0 11.615C 0 12.1875 0.462054 12.6496 1.0346 12.6496C 1.60714 12.6496 2.05915 12.1875 2.05915 11.615L 2.05915 7.29576C 2.05915 6.73326 1.5971 6.27121 1.0346 6.27121ZM 11.6819 6.46205L 2.46094 6.46205L 2.46094 13.1518C 2.46094 13.7645 2.95312 14.2567 3.56585 14.2567L 4.30915 14.2567L 4.3192 16.5368C 4.3192 17.1094 4.78125 17.5714 5.34375 17.5714C 5.91629 17.5714 6.37835 17.1094 6.37835 16.5368L 6.37835 14.2567L 7.76451 14.2567L 7.76451 16.5368C 7.76451 17.1094 8.22656 17.5714 8.79911 17.5714C 9.37165 17.5714 9.83371 17.1094 9.83371 16.5368L 9.83371 14.2567L 10.5871 14.2567C 11.1897 14.2567 11.6819 13.7645 11.6819 13.1518L 11.6819 6.46205ZM 9.35156 2.39397L 10.0647 1.07812C 10.1049 1.00781 10.0848 0.917411 10.0145 0.877232C 9.9442 0.847098 9.85379 0.867188 9.81362 0.9375L 9.0904 2.26339C 8.47768 1.99219 7.79464 1.84152 7.07143 1.84152C 6.34821 1.84152 5.66518 1.99219 5.05246 2.26339L 4.32924 0.9375C 4.28906 0.867188 4.19866 0.847098 4.12835 0.877232C 4.05804 0.917411 4.03795 1.00781 4.07812 1.07812L 4.79129 2.39397C 3.375 3.11719 2.42076 4.50335 2.42076 6.10045L 11.7121 6.10045C 11.7121 4.50335 10.7578 3.11719 9.35156 2.39397ZM 14.1429 7.29576C 14.1429 6.72321 13.6808 6.27121 13.1083 6.27121C 12.5458 6.27121 12.0837 6.72321 12.0837 7.29576L 12.0837 11.615C 12.0837 12.1875 12.5458 12.6496 13.1083 12.6496C 13.6808 12.6496 14.1429 12.1875 14.1429 11.615L 14.1429 7.29576Z"/>
  </defs>
</svg>
