<svg xmlns:xlink="http://www.w3.org/1999/xlink" width="18" height="16" viewBox="0 0 18 16" version="1.1"
     xmlns="http://www.w3.org/2000/svg">
  <title>Group</title>
  <desc>Created using Figma</desc>
  <g id="Canvas" transform="translate(5078 -890)">
    <g id="Group">
      <g id="Vector">
        <use xlink:href="#path0_fill" transform="translate(-5078 890)" fill="#8898A0"/>
      </g>
    </g>
  </g>
  <defs>
    <path id="path0_fill"
          d="M 17.5592 0.452027C 17.2655 0.150777 16.9126 0 16.4999 0L 1.5 0C 1.08751 0 0.734483 0.150777 0.440565 0.452027C 0.146811 0.753378 0 1.11542 0 1.53851L 0 11C 0 11.4232 0.146811 11.7852 0.440565 12.0866C 0.734483 12.3879 1.08751 12.5384 1.5 12.5384L 7 12.5384L 7 15C 7 15 5.8374 14.9772 5.5 15C 5.17698 15.0218 5 15.198 5 15.5C 5 15.8256 5.16969 16 5.5 16L 12.5 16C 12.8303 16 13 15.8257 13 15.5C 13 15.1403 12.7808 15.0149 12.5 15C 12.165 14.9822 11 15 11 15L 11 12.5384L 16.5002 12.5384C 16.9126 12.5384 17.2656 12.3879 17.5593 12.0866C 17.8531 11.7853 18 11.4233 18 11L 18 1.53851C 18.0001 1.11542 17.8531 0.753378 17.5592 0.452027Z"/>
  </defs>
</svg>
