<svg xmlns:xlink="http://www.w3.org/1999/xlink" width="13" height="13" viewBox="0 0 13 13" version="1.1"
     xmlns="http://www.w3.org/2000/svg">
  <title>&#239;&#128;&#141;</title>
  <desc>Created using Figma</desc>
  <g id="Canvas" transform="translate(5076 -632)">
    <g id="&#239;&#128;&#141;">
      <use xlink:href="#path0_fill" transform="translate(-5077 629)" fill="#8898A0"/>
    </g>
  </g>
  <defs>
    <path id="path0_fill"
          d="M 13.0379 12.8504C 13.0379 12.5993 12.9375 12.3482 12.7567 12.1674L 9.80357 9.21429L 12.7567 6.26116C 12.9375 6.08036 13.0379 5.82924 13.0379 5.57812C 13.0379 5.32701 12.9375 5.07589 12.7567 4.89509L 11.3906 3.52902C 11.2098 3.34821 10.9587 3.24777 10.7076 3.24777C 10.4565 3.24777 10.2054 3.34821 10.0246 3.52902L 7.07143 6.48214L 4.1183 3.52902C 3.9375 3.34821 3.68638 3.24777 3.43527 3.24777C 3.18415 3.24777 2.93304 3.34821 2.75223 3.52902L 1.38616 4.89509C 1.20536 5.07589 1.10491 5.32701 1.10491 5.57812C 1.10491 5.82924 1.20536 6.08036 1.38616 6.26116L 4.33929 9.21429L 1.38616 12.1674C 1.20536 12.3482 1.10491 12.5993 1.10491 12.8504C 1.10491 13.1016 1.20536 13.3527 1.38616 13.5335L 2.75223 14.8996C 2.93304 15.0804 3.18415 15.1808 3.43527 15.1808C 3.68638 15.1808 3.9375 15.0804 4.1183 14.8996L 7.07143 11.9464L 10.0246 14.8996C 10.2054 15.0804 10.4565 15.1808 10.7076 15.1808C 10.9587 15.1808 11.2098 15.0804 11.3906 14.8996L 12.7567 13.5335C 12.9375 13.3527 13.0379 13.1016 13.0379 12.8504Z"/>
  </defs>
</svg>
