<svg width="512" height="512" viewBox="0 0 512 512" fill="none" xmlns="http://www.w3.org/2000/svg">
<rect width="512" height="512" fill="white"/>
<path fill-rule="evenodd" clip-rule="evenodd" d="M245.346 185.87L184 195.308V245.5L245.346 244.32V185.87ZM184 298.481V251.077L245.346 252.257V306.739L184 298.481ZM253.712 184.583V244.159L329 242.712V173L253.712 184.583ZM329 253.865L253.712 252.418V307.865L329 318V253.865Z" fill="#BDBDBD"/>
<path fill-rule="evenodd" clip-rule="evenodd" d="M245.346 185.87L184 195.308V245.5L245.346 244.32V185.87ZM329 173L253.712 184.583V244.159L329 242.712V173ZM184 298.481L245.346 306.739V252.257L184 251.077V298.481ZM253.712 252.418V307.865L329 318V253.865L253.712 252.418Z" fill="#BDBDBD"/>
<path fill-rule="evenodd" clip-rule="evenodd" d="M132 6H381C387.627 6 393 11.3726 393 18V494C393 500.627 387.627 506 381 506H132C125.373 506 120 500.627 120 494V18C120 11.3726 125.373 6 132 6ZM378 40H135V441H378V40ZM281.5 21H230.5C228.567 21 227 22.567 227 24.5C227 26.433 228.567 28 230.5 28H281.5C283.433 28 285 26.433 285 24.5C285 22.567 283.433 21 281.5 21ZM243 462.5L254 460.808L255.5 460.577L269 458.5V471L255.5 471.26V460.577L254 460.808V471.288L243 471.5V462.5ZM254 482.481L243 481V472.5L254 472.712V482.481L255.5 482.683V472.74L269 473V484.5L255.5 482.683L254 482.481Z" fill="#BDBDBD"/>
</svg>
